[
  {
    "name": "3d_rotation",
    "id": "e84d"
  },
  {
    "name": "ac_unit",
    "id": "eb3b"
  },
  {
    "name": "access_alarm",
    "id": "e190"
  },
  {
    "name": "access_alarms",
    "id": "e191"
  },
  {
    "name": "access_time",
    "id": "e192"
  },
  {
    "name": "accessibility",
    "id": "e84e"
  },
  {
    "name": "accessible",
    "id": "e914"
  },
  {
    "name": "account_balance",
    "id": "e84f"
  },
  {
    "name": "account_balance_wallet",
    "id": "e850"
  },
  {
    "name": "account_box",
    "id": "e851"
  },
  {
    "name": "account_circle",
    "id": "e853"
  },
  {
    "name": "adb",
    "id": "e60e"
  },
  {
    "name": "add",
    "id": "e145"
  },
  {
    "name": "add_a_photo",
    "id": "e439"
  },
  {
    "name": "add_alarm",
    "id": "e193"
  },
  {
    "name": "add_alert",
    "id": "e003"
  },
  {
    "name": "add_box",
    "id": "e146"
  },
  {
    "name": "add_circle",
    "id": "e147"
  },
  {
    "name": "add_circle_outline",
    "id": "e148"
  },
  {
    "name": "add_location",
    "id": "e567"
  },
  {
    "name": "add_shopping_cart",
    "id": "e854"
  },
  {
    "name": "add_to_photos",
    "id": "e39d"
  },
  {
    "name": "add_to_queue",
    "id": "e05c"
  },
  {
    "name": "adjust",
    "id": "e39e"
  },
  {
    "name": "airline_seat_flat",
    "id": "e630"
  },
  {
    "name": "airline_seat_flat_angled",
    "id": "e631"
  },
  {
    "name": "airline_seat_individual_suite",
    "id": "e632"
  },
  {
    "name": "airline_seat_legroom_extra",
    "id": "e633"
  },
  {
    "name": "airline_seat_legroom_normal",
    "id": "e634"
  },
  {
    "name": "airline_seat_legroom_reduced",
    "id": "e635"
  },
  {
    "name": "airline_seat_recline_extra",
    "id": "e636"
  },
  {
    "name": "airline_seat_recline_normal",
    "id": "e637"
  },
  {
    "name": "airplanemode_active",
    "id": "e195"
  },
  {
    "name": "airplanemode_inactive",
    "id": "e194"
  },
  {
    "name": "airplay",
    "id": "e055"
  },
  {
    "name": "airport_shuttle",
    "id": "eb3c"
  },
  {
    "name": "alarm",
    "id": "e855"
  },
  {
    "name": "alarm_add",
    "id": "e856"
  },
  {
    "name": "alarm_off",
    "id": "e857"
  },
  {
    "name": "alarm_on",
    "id": "e858"
  },
  {
    "name": "album",
    "id": "e019"
  },
  {
    "name": "all_inclusive",
    "id": "eb3d"
  },
  {
    "name": "all_out",
    "id": "e90b"
  },
  {
    "name": "android",
    "id": "e859"
  },
  {
    "name": "announcement",
    "id": "e85a"
  },
  {
    "name": "apps",
    "id": "e5c3"
  },
  {
    "name": "archive",
    "id": "e149"
  },
  {
    "name": "arrow_back",
    "id": "e5c4"
  },
  {
    "name": "arrow_downward",
    "id": "e5db"
  },
  {
    "name": "arrow_drop_down",
    "id": "e5c5"
  },
  {
    "name": "arrow_drop_down_circle",
    "id": "e5c6"
  },
  {
    "name": "arrow_drop_up",
    "id": "e5c7"
  },
  {
    "name": "arrow_forward",
    "id": "e5c8"
  },
  {
    "name": "arrow_upward",
    "id": "e5d8"
  },
  {
    "name": "art_track",
    "id": "e060"
  },
  {
    "name": "aspect_ratio",
    "id": "e85b"
  },
  {
    "name": "assessment",
    "id": "e85c"
  },
  {
    "name": "assignment",
    "id": "e85d"
  },
  {
    "name": "assignment_ind",
    "id": "e85e"
  },
  {
    "name": "assignment_late",
    "id": "e85f"
  },
  {
    "name": "assignment_return",
    "id": "e860"
  },
  {
    "name": "assignment_returned",
    "id": "e861"
  },
  {
    "name": "assignment_turned_in",
    "id": "e862"
  },
  {
    "name": "assistant",
    "id": "e39f"
  },
  {
    "name": "assistant_photo",
    "id": "e3a0"
  },
  {
    "name": "attach_file",
    "id": "e226"
  },
  {
    "name": "attach_money",
    "id": "e227"
  },
  {
    "name": "attachment",
    "id": "e2bc"
  },
  {
    "name": "audiotrack",
    "id": "e3a1"
  },
  {
    "name": "autorenew",
    "id": "e863"
  },
  {
    "name": "av_timer",
    "id": "e01b"
  },
  {
    "name": "backspace",
    "id": "e14a"
  },
  {
    "name": "backup",
    "id": "e864"
  },
  {
    "name": "battery_alert",
    "id": "e19c"
  },
  {
    "name": "battery_charging_full",
    "id": "e1a3"
  },
  {
    "name": "battery_full",
    "id": "e1a4"
  },
  {
    "name": "battery_std",
    "id": "e1a5"
  },
  {
    "name": "battery_unknown",
    "id": "e1a6"
  },
  {
    "name": "beach_access",
    "id": "eb3e"
  },
  {
    "name": "beenhere",
    "id": "e52d"
  },
  {
    "name": "block",
    "id": "e14b"
  },
  {
    "name": "bluetooth",
    "id": "e1a7"
  },
  {
    "name": "bluetooth_audio",
    "id": "e60f"
  },
  {
    "name": "bluetooth_connected",
    "id": "e1a8"
  },
  {
    "name": "bluetooth_disabled",
    "id": "e1a9"
  },
  {
    "name": "bluetooth_searching",
    "id": "e1aa"
  },
  {
    "name": "blur_circular",
    "id": "e3a2"
  },
  {
    "name": "blur_linear",
    "id": "e3a3"
  },
  {
    "name": "blur_off",
    "id": "e3a4"
  },
  {
    "name": "blur_on",
    "id": "e3a5"
  },
  {
    "name": "book",
    "id": "e865"
  },
  {
    "name": "bookmark",
    "id": "e866"
  },
  {
    "name": "bookmark_border",
    "id": "e867"
  },
  {
    "name": "border_all",
    "id": "e228"
  },
  {
    "name": "border_bottom",
    "id": "e229"
  },
  {
    "name": "border_clear",
    "id": "e22a"
  },
  {
    "name": "border_color",
    "id": "e22b"
  },
  {
    "name": "border_horizontal",
    "id": "e22c"
  },
  {
    "name": "border_inner",
    "id": "e22d"
  },
  {
    "name": "border_left",
    "id": "e22e"
  },
  {
    "name": "border_outer",
    "id": "e22f"
  },
  {
    "name": "border_right",
    "id": "e230"
  },
  {
    "name": "border_style",
    "id": "e231"
  },
  {
    "name": "border_top",
    "id": "e232"
  },
  {
    "name": "border_vertical",
    "id": "e233"
  },
  {
    "name": "branding_watermark",
    "id": "e06b"
  },
  {
    "name": "brightness_1",
    "id": "e3a6"
  },
  {
    "name": "brightness_2",
    "id": "e3a7"
  },
  {
    "name": "brightness_3",
    "id": "e3a8"
  },
  {
    "name": "brightness_4",
    "id": "e3a9"
  },
  {
    "name": "brightness_5",
    "id": "e3aa"
  },
  {
    "name": "brightness_6",
    "id": "e3ab"
  },
  {
    "name": "brightness_7",
    "id": "e3ac"
  },
  {
    "name": "brightness_auto",
    "id": "e1ab"
  },
  {
    "name": "brightness_high",
    "id": "e1ac"
  },
  {
    "name": "brightness_low",
    "id": "e1ad"
  },
  {
    "name": "brightness_medium",
    "id": "e1ae"
  },
  {
    "name": "broken_image",
    "id": "e3ad"
  },
  {
    "name": "brush",
    "id": "e3ae"
  },
  {
    "name": "bubble_chart",
    "id": "e6dd"
  },
  {
    "name": "bug_report",
    "id": "e868"
  },
  {
    "name": "build",
    "id": "e869"
  },
  {
    "name": "burst_mode",
    "id": "e43c"
  },
  {
    "name": "business",
    "id": "e0af"
  },
  {
    "name": "business_center",
    "id": "eb3f"
  },
  {
    "name": "cached",
    "id": "e86a"
  },
  {
    "name": "cake",
    "id": "e7e9"
  },
  {
    "name": "call",
    "id": "e0b0"
  },
  {
    "name": "call_end",
    "id": "e0b1"
  },
  {
    "name": "call_made",
    "id": "e0b2"
  },
  {
    "name": "call_merge",
    "id": "e0b3"
  },
  {
    "name": "call_missed",
    "id": "e0b4"
  },
  {
    "name": "call_missed_outgoing",
    "id": "e0e4"
  },
  {
    "name": "call_received",
    "id": "e0b5"
  },
  {
    "name": "call_split",
    "id": "e0b6"
  },
  {
    "name": "call_to_action",
    "id": "e06c"
  },
  {
    "name": "camera",
    "id": "e3af"
  },
  {
    "name": "camera_alt",
    "id": "e3b0"
  },
  {
    "name": "camera_enhance",
    "id": "e8fc"
  },
  {
    "name": "camera_front",
    "id": "e3b1"
  },
  {
    "name": "camera_rear",
    "id": "e3b2"
  },
  {
    "name": "camera_roll",
    "id": "e3b3"
  },
  {
    "name": "cancel",
    "id": "e5c9"
  },
  {
    "name": "card_giftcard",
    "id": "e8f6"
  },
  {
    "name": "card_membership",
    "id": "e8f7"
  },
  {
    "name": "card_travel",
    "id": "e8f8"
  },
  {
    "name": "casino",
    "id": "eb40"
  },
  {
    "name": "cast",
    "id": "e307"
  },
  {
    "name": "cast_connected",
    "id": "e308"
  },
  {
    "name": "center_focus_strong",
    "id": "e3b4"
  },
  {
    "name": "center_focus_weak",
    "id": "e3b5"
  },
  {
    "name": "change_history",
    "id": "e86b"
  },
  {
    "name": "chat",
    "id": "e0b7"
  },
  {
    "name": "chat_bubble",
    "id": "e0ca"
  },
  {
    "name": "chat_bubble_outline",
    "id": "e0cb"
  },
  {
    "name": "check",
    "id": "e5ca"
  },
  {
    "name": "check_box",
    "id": "e834"
  },
  {
    "name": "check_box_outline_blank",
    "id": "e835"
  },
  {
    "name": "check_circle",
    "id": "e86c"
  },
  {
    "name": "chevron_left",
    "id": "e5cb"
  },
  {
    "name": "chevron_right",
    "id": "e5cc"
  },
  {
    "name": "child_care",
    "id": "eb41"
  },
  {
    "name": "child_friendly",
    "id": "eb42"
  },
  {
    "name": "chrome_reader_mode",
    "id": "e86d"
  },
  {
    "name": "class",
    "id": "e86e"
  },
  {
    "name": "clear",
    "id": "e14c"
  },
  {
    "name": "clear_all",
    "id": "e0b8"
  },
  {
    "name": "close",
    "id": "e5cd"
  },
  {
    "name": "closed_caption",
    "id": "e01c"
  },
  {
    "name": "cloud",
    "id": "e2bd"
  },
  {
    "name": "cloud_circle",
    "id": "e2be"
  },
  {
    "name": "cloud_done",
    "id": "e2bf"
  },
  {
    "name": "cloud_download",
    "id": "e2c0"
  },
  {
    "name": "cloud_off",
    "id": "e2c1"
  },
  {
    "name": "cloud_queue",
    "id": "e2c2"
  },
  {
    "name": "cloud_upload",
    "id": "e2c3"
  },
  {
    "name": "code",
    "id": "e86f"
  },
  {
    "name": "collections",
    "id": "e3b6"
  },
  {
    "name": "collections_bookmark",
    "id": "e431"
  },
  {
    "name": "color_lens",
    "id": "e3b7"
  },
  {
    "name": "colorize",
    "id": "e3b8"
  },
  {
    "name": "comment",
    "id": "e0b9"
  },
  {
    "name": "compare",
    "id": "e3b9"
  },
  {
    "name": "compare_arrows",
    "id": "e915"
  },
  {
    "name": "computer",
    "id": "e30a"
  },
  {
    "name": "confirmation_number",
    "id": "e638"
  },
  {
    "name": "contact_mail",
    "id": "e0d0"
  },
  {
    "name": "contact_phone",
    "id": "e0cf"
  },
  {
    "name": "contacts",
    "id": "e0ba"
  },
  {
    "name": "content_copy",
    "id": "e14d"
  },
  {
    "name": "content_cut",
    "id": "e14e"
  },
  {
    "name": "content_paste",
    "id": "e14f"
  },
  {
    "name": "control_point",
    "id": "e3ba"
  },
  {
    "name": "control_point_duplicate",
    "id": "e3bb"
  },
  {
    "name": "copyright",
    "id": "e90c"
  },
  {
    "name": "create",
    "id": "e150"
  },
  {
    "name": "create_new_folder",
    "id": "e2cc"
  },
  {
    "name": "credit_card",
    "id": "e870"
  },
  {
    "name": "crop",
    "id": "e3be"
  },
  {
    "name": "crop_16_9",
    "id": "e3bc"
  },
  {
    "name": "crop_3_2",
    "id": "e3bd"
  },
  {
    "name": "crop_5_4",
    "id": "e3bf"
  },
  {
    "name": "crop_7_5",
    "id": "e3c0"
  },
  {
    "name": "crop_din",
    "id": "e3c1"
  },
  {
    "name": "crop_free",
    "id": "e3c2"
  },
  {
    "name": "crop_landscape",
    "id": "e3c3"
  },
  {
    "name": "crop_original",
    "id": "e3c4"
  },
  {
    "name": "crop_portrait",
    "id": "e3c5"
  },
  {
    "name": "crop_rotate",
    "id": "e437"
  },
  {
    "name": "crop_square",
    "id": "e3c6"
  },
  {
    "name": "dashboard",
    "id": "e871"
  },
  {
    "name": "data_usage",
    "id": "e1af"
  },
  {
    "name": "date_range",
    "id": "e916"
  },
  {
    "name": "dehaze",
    "id": "e3c7"
  },
  {
    "name": "delete",
    "id": "e872"
  },
  {
    "name": "delete_forever",
    "id": "e92b"
  },
  {
    "name": "delete_sweep",
    "id": "e16c"
  },
  {
    "name": "description",
    "id": "e873"
  },
  {
    "name": "desktop_mac",
    "id": "e30b"
  },
  {
    "name": "desktop_windows",
    "id": "e30c"
  },
  {
    "name": "details",
    "id": "e3c8"
  },
  {
    "name": "developer_board",
    "id": "e30d"
  },
  {
    "name": "developer_mode",
    "id": "e1b0"
  },
  {
    "name": "device_hub",
    "id": "e335"
  },
  {
    "name": "devices",
    "id": "e1b1"
  },
  {
    "name": "devices_other",
    "id": "e337"
  },
  {
    "name": "dialer_sip",
    "id": "e0bb"
  },
  {
    "name": "dialpad",
    "id": "e0bc"
  },
  {
    "name": "directions",
    "id": "e52e"
  },
  {
    "name": "directions_bike",
    "id": "e52f"
  },
  {
    "name": "directions_boat",
    "id": "e532"
  },
  {
    "name": "directions_bus",
    "id": "e530"
  },
  {
    "name": "directions_car",
    "id": "e531"
  },
  {
    "name": "directions_railway",
    "id": "e534"
  },
  {
    "name": "directions_run",
    "id": "e566"
  },
  {
    "name": "directions_subway",
    "id": "e533"
  },
  {
    "name": "directions_transit",
    "id": "e535"
  },
  {
    "name": "directions_walk",
    "id": "e536"
  },
  {
    "name": "disc_full",
    "id": "e610"
  },
  {
    "name": "dns",
    "id": "e875"
  },
  {
    "name": "do_not_disturb",
    "id": "e612"
  },
  {
    "name": "do_not_disturb_alt",
    "id": "e611"
  },
  {
    "name": "do_not_disturb_off",
    "id": "e643"
  },
  {
    "name": "do_not_disturb_on",
    "id": "e644"
  },
  {
    "name": "dock",
    "id": "e30e"
  },
  {
    "name": "domain",
    "id": "e7ee"
  },
  {
    "name": "done",
    "id": "e876"
  },
  {
    "name": "done_all",
    "id": "e877"
  },
  {
    "name": "donut_large",
    "id": "e917"
  },
  {
    "name": "donut_small",
    "id": "e918"
  },
  {
    "name": "drafts",
    "id": "e151"
  },
  {
    "name": "drag_handle",
    "id": "e25d"
  },
  {
    "name": "drive_eta",
    "id": "e613"
  },
  {
    "name": "dvr",
    "id": "e1b2"
  },
  {
    "name": "edit",
    "id": "e3c9"
  },
  {
    "name": "edit_location",
    "id": "e568"
  },
  {
    "name": "eject",
    "id": "e8fb"
  },
  {
    "name": "email",
    "id": "e0be"
  },
  {
    "name": "enhanced_encryption",
    "id": "e63f"
  },
  {
    "name": "equalizer",
    "id": "e01d"
  },
  {
    "name": "error",
    "id": "e000"
  },
  {
    "name": "error_outline",
    "id": "e001"
  },
  {
    "name": "euro_symbol",
    "id": "e926"
  },
  {
    "name": "ev_station",
    "id": "e56d"
  },
  {
    "name": "event",
    "id": "e878"
  },
  {
    "name": "event_available",
    "id": "e614"
  },
  {
    "name": "event_busy",
    "id": "e615"
  },
  {
    "name": "event_note",
    "id": "e616"
  },
  {
    "name": "event_seat",
    "id": "e903"
  },
  {
    "name": "exit_to_app",
    "id": "e879"
  },
  {
    "name": "expand_less",
    "id": "e5ce"
  },
  {
    "name": "expand_more",
    "id": "e5cf"
  },
  {
    "name": "explicit",
    "id": "e01e"
  },
  {
    "name": "explore",
    "id": "e87a"
  },
  {
    "name": "exposure",
    "id": "e3ca"
  },
  {
    "name": "exposure_neg_1",
    "id": "e3cb"
  },
  {
    "name": "exposure_neg_2",
    "id": "e3cc"
  },
  {
    "name": "exposure_plus_1",
    "id": "e3cd"
  },
  {
    "name": "exposure_plus_2",
    "id": "e3ce"
  },
  {
    "name": "exposure_zero",
    "id": "e3cf"
  },
  {
    "name": "extension",
    "id": "e87b"
  },
  {
    "name": "face",
    "id": "e87c"
  },
  {
    "name": "fast_forward",
    "id": "e01f"
  },
  {
    "name": "fast_rewind",
    "id": "e020"
  },
  {
    "name": "favorite",
    "id": "e87d"
  },
  {
    "name": "favorite_border",
    "id": "e87e"
  },
  {
    "name": "featured_play_list",
    "id": "e06d"
  },
  {
    "name": "featured_video",
    "id": "e06e"
  },
  {
    "name": "feedback",
    "id": "e87f"
  },
  {
    "name": "fiber_dvr",
    "id": "e05d"
  },
  {
    "name": "fiber_manual_record",
    "id": "e061"
  },
  {
    "name": "fiber_new",
    "id": "e05e"
  },
  {
    "name": "fiber_pin",
    "id": "e06a"
  },
  {
    "name": "fiber_smart_record",
    "id": "e062"
  },
  {
    "name": "file_download",
    "id": "e2c4"
  },
  {
    "name": "file_upload",
    "id": "e2c6"
  },
  {
    "name": "filter",
    "id": "e3d3"
  },
  {
    "name": "filter_1",
    "id": "e3d0"
  },
  {
    "name": "filter_2",
    "id": "e3d1"
  },
  {
    "name": "filter_3",
    "id": "e3d2"
  },
  {
    "name": "filter_4",
    "id": "e3d4"
  },
  {
    "name": "filter_5",
    "id": "e3d5"
  },
  {
    "name": "filter_6",
    "id": "e3d6"
  },
  {
    "name": "filter_7",
    "id": "e3d7"
  },
  {
    "name": "filter_8",
    "id": "e3d8"
  },
  {
    "name": "filter_9",
    "id": "e3d9"
  },
  {
    "name": "filter_9_plus",
    "id": "e3da"
  },
  {
    "name": "filter_b_and_w",
    "id": "e3db"
  },
  {
    "name": "filter_center_focus",
    "id": "e3dc"
  },
  {
    "name": "filter_drama",
    "id": "e3dd"
  },
  {
    "name": "filter_frames",
    "id": "e3de"
  },
  {
    "name": "filter_hdr",
    "id": "e3df"
  },
  {
    "name": "filter_list",
    "id": "e152"
  },
  {
    "name": "filter_none",
    "id": "e3e0"
  },
  {
    "name": "filter_tilt_shift",
    "id": "e3e2"
  },
  {
    "name": "filter_vintage",
    "id": "e3e3"
  },
  {
    "name": "find_in_page",
    "id": "e880"
  },
  {
    "name": "find_replace",
    "id": "e881"
  },
  {
    "name": "fingerprint",
    "id": "e90d"
  },
  {
    "name": "first_page",
    "id": "e5dc"
  },
  {
    "name": "fitness_center",
    "id": "eb43"
  },
  {
    "name": "flag",
    "id": "e153"
  },
  {
    "name": "flare",
    "id": "e3e4"
  },
  {
    "name": "flash_auto",
    "id": "e3e5"
  },
  {
    "name": "flash_off",
    "id": "e3e6"
  },
  {
    "name": "flash_on",
    "id": "e3e7"
  },
  {
    "name": "flight",
    "id": "e539"
  },
  {
    "name": "flight_land",
    "id": "e904"
  },
  {
    "name": "flight_takeoff",
    "id": "e905"
  },
  {
    "name": "flip",
    "id": "e3e8"
  },
  {
    "name": "flip_to_back",
    "id": "e882"
  },
  {
    "name": "flip_to_front",
    "id": "e883"
  },
  {
    "name": "folder",
    "id": "e2c7"
  },
  {
    "name": "folder_open",
    "id": "e2c8"
  },
  {
    "name": "folder_shared",
    "id": "e2c9"
  },
  {
    "name": "folder_special",
    "id": "e617"
  },
  {
    "name": "font_download",
    "id": "e167"
  },
  {
    "name": "format_align_center",
    "id": "e234"
  },
  {
    "name": "format_align_justify",
    "id": "e235"
  },
  {
    "name": "format_align_left",
    "id": "e236"
  },
  {
    "name": "format_align_right",
    "id": "e237"
  },
  {
    "name": "format_bold",
    "id": "e238"
  },
  {
    "name": "format_clear",
    "id": "e239"
  },
  {
    "name": "format_color_fill",
    "id": "e23a"
  },
  {
    "name": "format_color_reset",
    "id": "e23b"
  },
  {
    "name": "format_color_text",
    "id": "e23c"
  },
  {
    "name": "format_indent_decrease",
    "id": "e23d"
  },
  {
    "name": "format_indent_increase",
    "id": "e23e"
  },
  {
    "name": "format_italic",
    "id": "e23f"
  },
  {
    "name": "format_line_spacing",
    "id": "e240"
  },
  {
    "name": "format_list_bulleted",
    "id": "e241"
  },
  {
    "name": "format_list_numbered",
    "id": "e242"
  },
  {
    "name": "format_paint",
    "id": "e243"
  },
  {
    "name": "format_quote",
    "id": "e244"
  },
  {
    "name": "format_shapes",
    "id": "e25e"
  },
  {
    "name": "format_size",
    "id": "e245"
  },
  {
    "name": "format_strikethrough",
    "id": "e246"
  },
  {
    "name": "format_textdirection_l_to_r",
    "id": "e247"
  },
  {
    "name": "format_textdirection_r_to_l",
    "id": "e248"
  },
  {
    "name": "format_underlined",
    "id": "e249"
  },
  {
    "name": "forum",
    "id": "e0bf"
  },
  {
    "name": "forward",
    "id": "e154"
  },
  {
    "name": "forward_10",
    "id": "e056"
  },
  {
    "name": "forward_30",
    "id": "e057"
  },
  {
    "name": "forward_5",
    "id": "e058"
  },
  {
    "name": "free_breakfast",
    "id": "eb44"
  },
  {
    "name": "fullscreen",
    "id": "e5d0"
  },
  {
    "name": "fullscreen_exit",
    "id": "e5d1"
  },
  {
    "name": "functions",
    "id": "e24a"
  },
  {
    "name": "g_translate",
    "id": "e927"
  },
  {
    "name": "gamepad",
    "id": "e30f"
  },
  {
    "name": "games",
    "id": "e021"
  },
  {
    "name": "gavel",
    "id": "e90e"
  },
  {
    "name": "gesture",
    "id": "e155"
  },
  {
    "name": "get_app",
    "id": "e884"
  },
  {
    "name": "gif",
    "id": "e908"
  },
  {
    "name": "golf_course",
    "id": "eb45"
  },
  {
    "name": "gps_fixed",
    "id": "e1b3"
  },
  {
    "name": "gps_not_fixed",
    "id": "e1b4"
  },
  {
    "name": "gps_off",
    "id": "e1b5"
  },
  {
    "name": "grade",
    "id": "e885"
  },
  {
    "name": "gradient",
    "id": "e3e9"
  },
  {
    "name": "grain",
    "id": "e3ea"
  },
  {
    "name": "graphic_eq",
    "id": "e1b8"
  },
  {
    "name": "grid_off",
    "id": "e3eb"
  },
  {
    "name": "grid_on",
    "id": "e3ec"
  },
  {
    "name": "group",
    "id": "e7ef"
  },
  {
    "name": "group_add",
    "id": "e7f0"
  },
  {
    "name": "group_work",
    "id": "e886"
  },
  {
    "name": "hd",
    "id": "e052"
  },
  {
    "name": "hdr_off",
    "id": "e3ed"
  },
  {
    "name": "hdr_on",
    "id": "e3ee"
  },
  {
    "name": "hdr_strong",
    "id": "e3f1"
  },
  {
    "name": "hdr_weak",
    "id": "e3f2"
  },
  {
    "name": "headset",
    "id": "e310"
  },
  {
    "name": "headset_mic",
    "id": "e311"
  },
  {
    "name": "healing",
    "id": "e3f3"
  },
  {
    "name": "hearing",
    "id": "e023"
  },
  {
    "name": "help",
    "id": "e887"
  },
  {
    "name": "help_outline",
    "id": "e8fd"
  },
  {
    "name": "high_quality",
    "id": "e024"
  },
  {
    "name": "highlight",
    "id": "e25f"
  },
  {
    "name": "highlight_off",
    "id": "e888"
  },
  {
    "name": "history",
    "id": "e889"
  },
  {
    "name": "home",
    "id": "e88a"
  },
  {
    "name": "hot_tub",
    "id": "eb46"
  },
  {
    "name": "hotel",
    "id": "e53a"
  },
  {
    "name": "hourglass_empty",
    "id": "e88b"
  },
  {
    "name": "hourglass_full",
    "id": "e88c"
  },
  {
    "name": "http",
    "id": "e902"
  },
  {
    "name": "https",
    "id": "e88d"
  },
  {
    "name": "image",
    "id": "e3f4"
  },
  {
    "name": "image_aspect_ratio",
    "id": "e3f5"
  },
  {
    "name": "import_contacts",
    "id": "e0e0"
  },
  {
    "name": "import_export",
    "id": "e0c3"
  },
  {
    "name": "important_devices",
    "id": "e912"
  },
  {
    "name": "inbox",
    "id": "e156"
  },
  {
    "name": "indeterminate_check_box",
    "id": "e909"
  },
  {
    "name": "info",
    "id": "e88e"
  },
  {
    "name": "info_outline",
    "id": "e88f"
  },
  {
    "name": "input",
    "id": "e890"
  },
  {
    "name": "insert_chart",
    "id": "e24b"
  },
  {
    "name": "insert_comment",
    "id": "e24c"
  },
  {
    "name": "insert_drive_file",
    "id": "e24d"
  },
  {
    "name": "insert_emoticon",
    "id": "e24e"
  },
  {
    "name": "insert_invitation",
    "id": "e24f"
  },
  {
    "name": "insert_link",
    "id": "e250"
  },
  {
    "name": "insert_photo",
    "id": "e251"
  },
  {
    "name": "invert_colors",
    "id": "e891"
  },
  {
    "name": "invert_colors_off",
    "id": "e0c4"
  },
  {
    "name": "iso",
    "id": "e3f6"
  },
  {
    "name": "keyboard",
    "id": "e312"
  },
  {
    "name": "keyboard_arrow_down",
    "id": "e313"
  },
  {
    "name": "keyboard_arrow_left",
    "id": "e314"
  },
  {
    "name": "keyboard_arrow_right",
    "id": "e315"
  },
  {
    "name": "keyboard_arrow_up",
    "id": "e316"
  },
  {
    "name": "keyboard_backspace",
    "id": "e317"
  },
  {
    "name": "keyboard_capslock",
    "id": "e318"
  },
  {
    "name": "keyboard_hide",
    "id": "e31a"
  },
  {
    "name": "keyboard_return",
    "id": "e31b"
  },
  {
    "name": "keyboard_tab",
    "id": "e31c"
  },
  {
    "name": "keyboard_voice",
    "id": "e31d"
  },
  {
    "name": "kitchen",
    "id": "eb47"
  },
  {
    "name": "label",
    "id": "e892"
  },
  {
    "name": "label_outline",
    "id": "e893"
  },
  {
    "name": "landscape",
    "id": "e3f7"
  },
  {
    "name": "language",
    "id": "e894"
  },
  {
    "name": "laptop",
    "id": "e31e"
  },
  {
    "name": "laptop_chromebook",
    "id": "e31f"
  },
  {
    "name": "laptop_mac",
    "id": "e320"
  },
  {
    "name": "laptop_windows",
    "id": "e321"
  },
  {
    "name": "last_page",
    "id": "e5dd"
  },
  {
    "name": "launch",
    "id": "e895"
  },
  {
    "name": "layers",
    "id": "e53b"
  },
  {
    "name": "layers_clear",
    "id": "e53c"
  },
  {
    "name": "leak_add",
    "id": "e3f8"
  },
  {
    "name": "leak_remove",
    "id": "e3f9"
  },
  {
    "name": "lens",
    "id": "e3fa"
  },
  {
    "name": "library_add",
    "id": "e02e"
  },
  {
    "name": "library_books",
    "id": "e02f"
  },
  {
    "name": "library_music",
    "id": "e030"
  },
  {
    "name": "lightbulb_outline",
    "id": "e90f"
  },
  {
    "name": "line_style",
    "id": "e919"
  },
  {
    "name": "line_weight",
    "id": "e91a"
  },
  {
    "name": "linear_scale",
    "id": "e260"
  },
  {
    "name": "link",
    "id": "e157"
  },
  {
    "name": "linked_camera",
    "id": "e438"
  },
  {
    "name": "list",
    "id": "e896"
  },
  {
    "name": "live_help",
    "id": "e0c6"
  },
  {
    "name": "live_tv",
    "id": "e639"
  },
  {
    "name": "local_activity",
    "id": "e53f"
  },
  {
    "name": "local_airport",
    "id": "e53d"
  },
  {
    "name": "local_atm",
    "id": "e53e"
  },
  {
    "name": "local_bar",
    "id": "e540"
  },
  {
    "name": "local_cafe",
    "id": "e541"
  },
  {
    "name": "local_car_wash",
    "id": "e542"
  },
  {
    "name": "local_convenience_store",
    "id": "e543"
  },
  {
    "name": "local_dining",
    "id": "e556"
  },
  {
    "name": "local_drink",
    "id": "e544"
  },
  {
    "name": "local_florist",
    "id": "e545"
  },
  {
    "name": "local_gas_station",
    "id": "e546"
  },
  {
    "name": "local_grocery_store",
    "id": "e547"
  },
  {
    "name": "local_hospital",
    "id": "e548"
  },
  {
    "name": "local_hotel",
    "id": "e549"
  },
  {
    "name": "local_laundry_service",
    "id": "e54a"
  },
  {
    "name": "local_library",
    "id": "e54b"
  },
  {
    "name": "local_mall",
    "id": "e54c"
  },
  {
    "name": "local_movies",
    "id": "e54d"
  },
  {
    "name": "local_offer",
    "id": "e54e"
  },
  {
    "name": "local_parking",
    "id": "e54f"
  },
  {
    "name": "local_pharmacy",
    "id": "e550"
  },
  {
    "name": "local_phone",
    "id": "e551"
  },
  {
    "name": "local_pizza",
    "id": "e552"
  },
  {
    "name": "local_play",
    "id": "e553"
  },
  {
    "name": "local_post_office",
    "id": "e554"
  },
  {
    "name": "local_printshop",
    "id": "e555"
  },
  {
    "name": "local_see",
    "id": "e557"
  },
  {
    "name": "local_shipping",
    "id": "e558"
  },
  {
    "name": "local_taxi",
    "id": "e559"
  },
  {
    "name": "location_city",
    "id": "e7f1"
  },
  {
    "name": "location_disabled",
    "id": "e1b6"
  },
  {
    "name": "location_off",
    "id": "e0c7"
  },
  {
    "name": "location_on",
    "id": "e0c8"
  },
  {
    "name": "location_searching",
    "id": "e1b7"
  },
  {
    "name": "lock",
    "id": "e897"
  },
  {
    "name": "lock_open",
    "id": "e898"
  },
  {
    "name": "lock_outline",
    "id": "e899"
  },
  {
    "name": "looks",
    "id": "e3fc"
  },
  {
    "name": "looks_3",
    "id": "e3fb"
  },
  {
    "name": "looks_4",
    "id": "e3fd"
  },
  {
    "name": "looks_5",
    "id": "e3fe"
  },
  {
    "name": "looks_6",
    "id": "e3ff"
  },
  {
    "name": "looks_one",
    "id": "e400"
  },
  {
    "name": "looks_two",
    "id": "e401"
  },
  {
    "name": "loop",
    "id": "e028"
  },
  {
    "name": "loupe",
    "id": "e402"
  },
  {
    "name": "low_priority",
    "id": "e16d"
  },
  {
    "name": "loyalty",
    "id": "e89a"
  },
  {
    "name": "mail",
    "id": "e158"
  },
  {
    "name": "mail_outline",
    "id": "e0e1"
  },
  {
    "name": "map",
    "id": "e55b"
  },
  {
    "name": "markunread",
    "id": "e159"
  },
  {
    "name": "markunread_mailbox",
    "id": "e89b"
  },
  {
    "name": "memory",
    "id": "e322"
  },
  {
    "name": "menu",
    "id": "e5d2"
  },
  {
    "name": "merge_type",
    "id": "e252"
  },
  {
    "name": "message",
    "id": "e0c9"
  },
  {
    "name": "mic",
    "id": "e029"
  },
  {
    "name": "mic_none",
    "id": "e02a"
  },
  {
    "name": "mic_off",
    "id": "e02b"
  },
  {
    "name": "mms",
    "id": "e618"
  },
  {
    "name": "mode_comment",
    "id": "e253"
  },
  {
    "name": "mode_edit",
    "id": "e254"
  },
  {
    "name": "monetization_on",
    "id": "e263"
  },
  {
    "name": "money_off",
    "id": "e25c"
  },
  {
    "name": "monochrome_photos",
    "id": "e403"
  },
  {
    "name": "mood",
    "id": "e7f2"
  },
  {
    "name": "mood_bad",
    "id": "e7f3"
  },
  {
    "name": "more",
    "id": "e619"
  },
  {
    "name": "more_horiz",
    "id": "e5d3"
  },
  {
    "name": "more_vert",
    "id": "e5d4"
  },
  {
    "name": "motorcycle",
    "id": "e91b"
  },
  {
    "name": "mouse",
    "id": "e323"
  },
  {
    "name": "move_to_inbox",
    "id": "e168"
  },
  {
    "name": "movie",
    "id": "e02c"
  },
  {
    "name": "movie_creation",
    "id": "e404"
  },
  {
    "name": "movie_filter",
    "id": "e43a"
  },
  {
    "name": "multiline_chart",
    "id": "e6df"
  },
  {
    "name": "music_note",
    "id": "e405"
  },
  {
    "name": "music_video",
    "id": "e063"
  },
  {
    "name": "my_location",
    "id": "e55c"
  },
  {
    "name": "nature",
    "id": "e406"
  },
  {
    "name": "nature_people",
    "id": "e407"
  },
  {
    "name": "navigate_before",
    "id": "e408"
  },
  {
    "name": "navigate_next",
    "id": "e409"
  },
  {
    "name": "navigation",
    "id": "e55d"
  },
  {
    "name": "near_me",
    "id": "e569"
  },
  {
    "name": "network_cell",
    "id": "e1b9"
  },
  {
    "name": "network_check",
    "id": "e640"
  },
  {
    "name": "network_locked",
    "id": "e61a"
  },
  {
    "name": "network_wifi",
    "id": "e1ba"
  },
  {
    "name": "new_releases",
    "id": "e031"
  },
  {
    "name": "next_week",
    "id": "e16a"
  },
  {
    "name": "nfc",
    "id": "e1bb"
  },
  {
    "name": "no_encryption",
    "id": "e641"
  },
  {
    "name": "no_sim",
    "id": "e0cc"
  },
  {
    "name": "not_interested",
    "id": "e033"
  },
  {
    "name": "note",
    "id": "e06f"
  },
  {
    "name": "note_add",
    "id": "e89c"
  },
  {
    "name": "notifications",
    "id": "e7f4"
  },
  {
    "name": "notifications_active",
    "id": "e7f7"
  },
  {
    "name": "notifications_none",
    "id": "e7f5"
  },
  {
    "name": "notifications_off",
    "id": "e7f6"
  },
  {
    "name": "notifications_paused",
    "id": "e7f8"
  },
  {
    "name": "offline_pin",
    "id": "e90a"
  },
  {
    "name": "ondemand_video",
    "id": "e63a"
  },
  {
    "name": "opacity",
    "id": "e91c"
  },
  {
    "name": "open_in_browser",
    "id": "e89d"
  },
  {
    "name": "open_in_new",
    "id": "e89e"
  },
  {
    "name": "open_with",
    "id": "e89f"
  },
  {
    "name": "pages",
    "id": "e7f9"
  },
  {
    "name": "pageview",
    "id": "e8a0"
  },
  {
    "name": "palette",
    "id": "e40a"
  },
  {
    "name": "pan_tool",
    "id": "e925"
  },
  {
    "name": "panorama",
    "id": "e40b"
  },
  {
    "name": "panorama_fish_eye",
    "id": "e40c"
  },
  {
    "name": "panorama_horizontal",
    "id": "e40d"
  },
  {
    "name": "panorama_vertical",
    "id": "e40e"
  },
  {
    "name": "panorama_wide_angle",
    "id": "e40f"
  },
  {
    "name": "party_mode",
    "id": "e7fa"
  },
  {
    "name": "pause",
    "id": "e034"
  },
  {
    "name": "pause_circle_filled",
    "id": "e035"
  },
  {
    "name": "pause_circle_outline",
    "id": "e036"
  },
  {
    "name": "payment",
    "id": "e8a1"
  },
  {
    "name": "people",
    "id": "e7fb"
  },
  {
    "name": "people_outline",
    "id": "e7fc"
  },
  {
    "name": "perm_camera_mic",
    "id": "e8a2"
  },
  {
    "name": "perm_contact_calendar",
    "id": "e8a3"
  },
  {
    "name": "perm_data_setting",
    "id": "e8a4"
  },
  {
    "name": "perm_device_information",
    "id": "e8a5"
  },
  {
    "name": "perm_identity",
    "id": "e8a6"
  },
  {
    "name": "perm_media",
    "id": "e8a7"
  },
  {
    "name": "perm_phone_msg",
    "id": "e8a8"
  },
  {
    "name": "perm_scan_wifi",
    "id": "e8a9"
  },
  {
    "name": "person",
    "id": "e7fd"
  },
  {
    "name": "person_add",
    "id": "e7fe"
  },
  {
    "name": "person_outline",
    "id": "e7ff"
  },
  {
    "name": "person_pin",
    "id": "e55a"
  },
  {
    "name": "person_pin_circle",
    "id": "e56a"
  },
  {
    "name": "personal_video",
    "id": "e63b"
  },
  {
    "name": "pets",
    "id": "e91d"
  },
  {
    "name": "phone",
    "id": "e0cd"
  },
  {
    "name": "phone_android",
    "id": "e324"
  },
  {
    "name": "phone_bluetooth_speaker",
    "id": "e61b"
  },
  {
    "name": "phone_forwarded",
    "id": "e61c"
  },
  {
    "name": "phone_in_talk",
    "id": "e61d"
  },
  {
    "name": "phone_iphone",
    "id": "e325"
  },
  {
    "name": "phone_locked",
    "id": "e61e"
  },
  {
    "name": "phone_missed",
    "id": "e61f"
  },
  {
    "name": "phone_paused",
    "id": "e620"
  },
  {
    "name": "phonelink",
    "id": "e326"
  },
  {
    "name": "phonelink_erase",
    "id": "e0db"
  },
  {
    "name": "phonelink_lock",
    "id": "e0dc"
  },
  {
    "name": "phonelink_off",
    "id": "e327"
  },
  {
    "name": "phonelink_ring",
    "id": "e0dd"
  },
  {
    "name": "phonelink_setup",
    "id": "e0de"
  },
  {
    "name": "photo",
    "id": "e410"
  },
  {
    "name": "photo_album",
    "id": "e411"
  },
  {
    "name": "photo_camera",
    "id": "e412"
  },
  {
    "name": "photo_filter",
    "id": "e43b"
  },
  {
    "name": "photo_library",
    "id": "e413"
  },
  {
    "name": "photo_size_select_actual",
    "id": "e432"
  },
  {
    "name": "photo_size_select_large",
    "id": "e433"
  },
  {
    "name": "photo_size_select_small",
    "id": "e434"
  },
  {
    "name": "picture_as_pdf",
    "id": "e415"
  },
  {
    "name": "picture_in_picture",
    "id": "e8aa"
  },
  {
    "name": "picture_in_picture_alt",
    "id": "e911"
  },
  {
    "name": "pie_chart",
    "id": "e6c4"
  },
  {
    "name": "pie_chart_outlined",
    "id": "e6c5"
  },
  {
    "name": "pin_drop",
    "id": "e55e"
  },
  {
    "name": "place",
    "id": "e55f"
  },
  {
    "name": "play_arrow",
    "id": "e037"
  },
  {
    "name": "play_circle_filled",
    "id": "e038"
  },
  {
    "name": "play_circle_outline",
    "id": "e039"
  },
  {
    "name": "play_for_work",
    "id": "e906"
  },
  {
    "name": "playlist_add",
    "id": "e03b"
  },
  {
    "name": "playlist_add_check",
    "id": "e065"
  },
  {
    "name": "playlist_play",
    "id": "e05f"
  },
  {
    "name": "plus_one",
    "id": "e800"
  },
  {
    "name": "poll",
    "id": "e801"
  },
  {
    "name": "polymer",
    "id": "e8ab"
  },
  {
    "name": "pool",
    "id": "eb48"
  },
  {
    "name": "portable_wifi_off",
    "id": "e0ce"
  },
  {
    "name": "portrait",
    "id": "e416"
  },
  {
    "name": "power",
    "id": "e63c"
  },
  {
    "name": "power_input",
    "id": "e336"
  },
  {
    "name": "power_settings_new",
    "id": "e8ac"
  },
  {
    "name": "pregnant_woman",
    "id": "e91e"
  },
  {
    "name": "present_to_all",
    "id": "e0df"
  },
  {
    "name": "print",
    "id": "e8ad"
  },
  {
    "name": "priority_high",
    "id": "e645"
  },
  {
    "name": "public",
    "id": "e80b"
  },
  {
    "name": "publish",
    "id": "e255"
  },
  {
    "name": "query_builder",
    "id": "e8ae"
  },
  {
    "name": "question_answer",
    "id": "e8af"
  },
  {
    "name": "queue",
    "id": "e03c"
  },
  {
    "name": "queue_music",
    "id": "e03d"
  },
  {
    "name": "queue_play_next",
    "id": "e066"
  },
  {
    "name": "radio",
    "id": "e03e"
  },
  {
    "name": "radio_button_checked",
    "id": "e837"
  },
  {
    "name": "radio_button_unchecked",
    "id": "e836"
  },
  {
    "name": "rate_review",
    "id": "e560"
  },
  {
    "name": "receipt",
    "id": "e8b0"
  },
  {
    "name": "recent_actors",
    "id": "e03f"
  },
  {
    "name": "record_voice_over",
    "id": "e91f"
  },
  {
    "name": "redeem",
    "id": "e8b1"
  },
  {
    "name": "redo",
    "id": "e15a"
  },
  {
    "name": "refresh",
    "id": "e5d5"
  },
  {
    "name": "remove",
    "id": "e15b"
  },
  {
    "name": "remove_circle",
    "id": "e15c"
  },
  {
    "name": "remove_circle_outline",
    "id": "e15d"
  },
  {
    "name": "remove_from_queue",
    "id": "e067"
  },
  {
    "name": "remove_red_eye",
    "id": "e417"
  },
  {
    "name": "remove_shopping_cart",
    "id": "e928"
  },
  {
    "name": "reorder",
    "id": "e8fe"
  },
  {
    "name": "repeat",
    "id": "e040"
  },
  {
    "name": "repeat_one",
    "id": "e041"
  },
  {
    "name": "replay",
    "id": "e042"
  },
  {
    "name": "replay_10",
    "id": "e059"
  },
  {
    "name": "replay_30",
    "id": "e05a"
  },
  {
    "name": "replay_5",
    "id": "e05b"
  },
  {
    "name": "reply",
    "id": "e15e"
  },
  {
    "name": "reply_all",
    "id": "e15f"
  },
  {
    "name": "report",
    "id": "e160"
  },
  {
    "name": "report_problem",
    "id": "e8b2"
  },
  {
    "name": "restaurant",
    "id": "e56c"
  },
  {
    "name": "restaurant_menu",
    "id": "e561"
  },
  {
    "name": "restore",
    "id": "e8b3"
  },
  {
    "name": "restore_page",
    "id": "e929"
  },
  {
    "name": "ring_volume",
    "id": "e0d1"
  },
  {
    "name": "room",
    "id": "e8b4"
  },
  {
    "name": "room_service",
    "id": "eb49"
  },
  {
    "name": "rotate_90_degrees_ccw",
    "id": "e418"
  },
  {
    "name": "rotate_left",
    "id": "e419"
  },
  {
    "name": "rotate_right",
    "id": "e41a"
  },
  {
    "name": "rounded_corner",
    "id": "e920"
  },
  {
    "name": "router",
    "id": "e328"
  },
  {
    "name": "rowing",
    "id": "e921"
  },
  {
    "name": "rss_feed",
    "id": "e0e5"
  },
  {
    "name": "rv_hookup",
    "id": "e642"
  },
  {
    "name": "satellite",
    "id": "e562"
  },
  {
    "name": "save",
    "id": "e161"
  },
  {
    "name": "scanner",
    "id": "e329"
  },
  {
    "name": "schedule",
    "id": "e8b5"
  },
  {
    "name": "school",
    "id": "e80c"
  },
  {
    "name": "screen_lock_landscape",
    "id": "e1be"
  },
  {
    "name": "screen_lock_portrait",
    "id": "e1bf"
  },
  {
    "name": "screen_lock_rotation",
    "id": "e1c0"
  },
  {
    "name": "screen_rotation",
    "id": "e1c1"
  },
  {
    "name": "screen_share",
    "id": "e0e2"
  },
  {
    "name": "sd_card",
    "id": "e623"
  },
  {
    "name": "sd_storage",
    "id": "e1c2"
  },
  {
    "name": "search",
    "id": "e8b6"
  },
  {
    "name": "security",
    "id": "e32a"
  },
  {
    "name": "select_all",
    "id": "e162"
  },
  {
    "name": "send",
    "id": "e163"
  },
  {
    "name": "sentiment_dissatisfied",
    "id": "e811"
  },
  {
    "name": "sentiment_neutral",
    "id": "e812"
  },
  {
    "name": "sentiment_satisfied",
    "id": "e813"
  },
  {
    "name": "sentiment_very_dissatisfied",
    "id": "e814"
  },
  {
    "name": "sentiment_very_satisfied",
    "id": "e815"
  },
  {
    "name": "settings",
    "id": "e8b8"
  },
  {
    "name": "settings_applications",
    "id": "e8b9"
  },
  {
    "name": "settings_backup_restore",
    "id": "e8ba"
  },
  {
    "name": "settings_bluetooth",
    "id": "e8bb"
  },
  {
    "name": "settings_brightness",
    "id": "e8bd"
  },
  {
    "name": "settings_cell",
    "id": "e8bc"
  },
  {
    "name": "settings_ethernet",
    "id": "e8be"
  },
  {
    "name": "settings_input_antenna",
    "id": "e8bf"
  },
  {
    "name": "settings_input_component",
    "id": "e8c0"
  },
  {
    "name": "settings_input_composite",
    "id": "e8c1"
  },
  {
    "name": "settings_input_hdmi",
    "id": "e8c2"
  },
  {
    "name": "settings_input_svideo",
    "id": "e8c3"
  },
  {
    "name": "settings_overscan",
    "id": "e8c4"
  },
  {
    "name": "settings_phone",
    "id": "e8c5"
  },
  {
    "name": "settings_power",
    "id": "e8c6"
  },
  {
    "name": "settings_remote",
    "id": "e8c7"
  },
  {
    "name": "settings_system_daydream",
    "id": "e1c3"
  },
  {
    "name": "settings_voice",
    "id": "e8c8"
  },
  {
    "name": "share",
    "id": "e80d"
  },
  {
    "name": "shop",
    "id": "e8c9"
  },
  {
    "name": "shop_two",
    "id": "e8ca"
  },
  {
    "name": "shopping_basket",
    "id": "e8cb"
  },
  {
    "name": "shopping_cart",
    "id": "e8cc"
  },
  {
    "name": "short_text",
    "id": "e261"
  },
  {
    "name": "show_chart",
    "id": "e6e1"
  },
  {
    "name": "shuffle",
    "id": "e043"
  },
  {
    "name": "signal_cellular_4_bar",
    "id": "e1c8"
  },
  {
    "name": "signal_cellular_connected_no_internet_4_bar",
    "id": "e1cd"
  },
  {
    "name": "signal_cellular_no_sim",
    "id": "e1ce"
  },
  {
    "name": "signal_cellular_null",
    "id": "e1cf"
  },
  {
    "name": "signal_cellular_off",
    "id": "e1d0"
  },
  {
    "name": "signal_wifi_4_bar",
    "id": "e1d8"
  },
  {
    "name": "signal_wifi_4_bar_lock",
    "id": "e1d9"
  },
  {
    "name": "signal_wifi_off",
    "id": "e1da"
  },
  {
    "name": "sim_card",
    "id": "e32b"
  },
  {
    "name": "sim_card_alert",
    "id": "e624"
  },
  {
    "name": "skip_next",
    "id": "e044"
  },
  {
    "name": "skip_previous",
    "id": "e045"
  },
  {
    "name": "slideshow",
    "id": "e41b"
  },
  {
    "name": "slow_motion_video",
    "id": "e068"
  },
  {
    "name": "smartphone",
    "id": "e32c"
  },
  {
    "name": "smoke_free",
    "id": "eb4a"
  },
  {
    "name": "smoking_rooms",
    "id": "eb4b"
  },
  {
    "name": "sms",
    "id": "e625"
  },
  {
    "name": "sms_failed",
    "id": "e626"
  },
  {
    "name": "snooze",
    "id": "e046"
  },
  {
    "name": "sort",
    "id": "e164"
  },
  {
    "name": "sort_by_alpha",
    "id": "e053"
  },
  {
    "name": "spa",
    "id": "eb4c"
  },
  {
    "name": "space_bar",
    "id": "e256"
  },
  {
    "name": "speaker",
    "id": "e32d"
  },
  {
    "name": "speaker_group",
    "id": "e32e"
  },
  {
    "name": "speaker_notes",
    "id": "e8cd"
  },
  {
    "name": "speaker_notes_off",
    "id": "e92a"
  },
  {
    "name": "speaker_phone",
    "id": "e0d2"
  },
  {
    "name": "spellcheck",
    "id": "e8ce"
  },
  {
    "name": "star",
    "id": "e838"
  },
  {
    "name": "star_border",
    "id": "e83a"
  },
  {
    "name": "star_half",
    "id": "e839"
  },
  {
    "name": "stars",
    "id": "e8d0"
  },
  {
    "name": "stay_current_landscape",
    "id": "e0d3"
  },
  {
    "name": "stay_current_portrait",
    "id": "e0d4"
  },
  {
    "name": "stay_primary_landscape",
    "id": "e0d5"
  },
  {
    "name": "stay_primary_portrait",
    "id": "e0d6"
  },
  {
    "name": "stop",
    "id": "e047"
  },
  {
    "name": "stop_screen_share",
    "id": "e0e3"
  },
  {
    "name": "storage",
    "id": "e1db"
  },
  {
    "name": "store",
    "id": "e8d1"
  },
  {
    "name": "store_mall_directory",
    "id": "e563"
  },
  {
    "name": "straighten",
    "id": "e41c"
  },
  {
    "name": "streetview",
    "id": "e56e"
  },
  {
    "name": "strikethrough_s",
    "id": "e257"
  },
  {
    "name": "style",
    "id": "e41d"
  },
  {
    "name": "subdirectory_arrow_left",
    "id": "e5d9"
  },
  {
    "name": "subdirectory_arrow_right",
    "id": "e5da"
  },
  {
    "name": "subject",
    "id": "e8d2"
  },
  {
    "name": "subscriptions",
    "id": "e064"
  },
  {
    "name": "subtitles",
    "id": "e048"
  },
  {
    "name": "subway",
    "id": "e56f"
  },
  {
    "name": "supervisor_account",
    "id": "e8d3"
  },
  {
    "name": "surround_sound",
    "id": "e049"
  },
  {
    "name": "swap_calls",
    "id": "e0d7"
  },
  {
    "name": "swap_horiz",
    "id": "e8d4"
  },
  {
    "name": "swap_vert",
    "id": "e8d5"
  },
  {
    "name": "swap_vertical_circle",
    "id": "e8d6"
  },
  {
    "name": "switch_camera",
    "id": "e41e"
  },
  {
    "name": "switch_video",
    "id": "e41f"
  },
  {
    "name": "sync",
    "id": "e627"
  },
  {
    "name": "sync_disabled",
    "id": "e628"
  },
  {
    "name": "sync_problem",
    "id": "e629"
  },
  {
    "name": "system_update",
    "id": "e62a"
  },
  {
    "name": "system_update_alt",
    "id": "e8d7"
  },
  {
    "name": "tab",
    "id": "e8d8"
  },
  {
    "name": "tab_unselected",
    "id": "e8d9"
  },
  {
    "name": "tablet",
    "id": "e32f"
  },
  {
    "name": "tablet_android",
    "id": "e330"
  },
  {
    "name": "tablet_mac",
    "id": "e331"
  },
  {
    "name": "tag_faces",
    "id": "e420"
  },
  {
    "name": "tap_and_play",
    "id": "e62b"
  },
  {
    "name": "terrain",
    "id": "e564"
  },
  {
    "name": "text_fields",
    "id": "e262"
  },
  {
    "name": "text_format",
    "id": "e165"
  },
  {
    "name": "textsms",
    "id": "e0d8"
  },
  {
    "name": "texture",
    "id": "e421"
  },
  {
    "name": "theaters",
    "id": "e8da"
  },
  {
    "name": "thumb_down",
    "id": "e8db"
  },
  {
    "name": "thumb_up",
    "id": "e8dc"
  },
  {
    "name": "thumbs_up_down",
    "id": "e8dd"
  },
  {
    "name": "time_to_leave",
    "id": "e62c"
  },
  {
    "name": "timelapse",
    "id": "e422"
  },
  {
    "name": "timeline",
    "id": "e922"
  },
  {
    "name": "timer",
    "id": "e425"
  },
  {
    "name": "timer_10",
    "id": "e423"
  },
  {
    "name": "timer_3",
    "id": "e424"
  },
  {
    "name": "timer_off",
    "id": "e426"
  },
  {
    "name": "title",
    "id": "e264"
  },
  {
    "name": "toc",
    "id": "e8de"
  },
  {
    "name": "today",
    "id": "e8df"
  },
  {
    "name": "toll",
    "id": "e8e0"
  },
  {
    "name": "tonality",
    "id": "e427"
  },
  {
    "name": "touch_app",
    "id": "e913"
  },
  {
    "name": "toys",
    "id": "e332"
  },
  {
    "name": "track_changes",
    "id": "e8e1"
  },
  {
    "name": "traffic",
    "id": "e565"
  },
  {
    "name": "train",
    "id": "e570"
  },
  {
    "name": "tram",
    "id": "e571"
  },
  {
    "name": "transfer_within_a_station",
    "id": "e572"
  },
  {
    "name": "transform",
    "id": "e428"
  },
  {
    "name": "translate",
    "id": "e8e2"
  },
  {
    "name": "trending_down",
    "id": "e8e3"
  },
  {
    "name": "trending_flat",
    "id": "e8e4"
  },
  {
    "name": "trending_up",
    "id": "e8e5"
  },
  {
    "name": "tune",
    "id": "e429"
  },
  {
    "name": "turned_in",
    "id": "e8e6"
  },
  {
    "name": "turned_in_not",
    "id": "e8e7"
  },
  {
    "name": "tv",
    "id": "e333"
  },
  {
    "name": "unarchive",
    "id": "e169"
  },
  {
    "name": "undo",
    "id": "e166"
  },
  {
    "name": "unfold_less",
    "id": "e5d6"
  },
  {
    "name": "unfold_more",
    "id": "e5d7"
  },
  {
    "name": "update",
    "id": "e923"
  },
  {
    "name": "usb",
    "id": "e1e0"
  },
  {
    "name": "verified_user",
    "id": "e8e8"
  },
  {
    "name": "vertical_align_bottom",
    "id": "e258"
  },
  {
    "name": "vertical_align_center",
    "id": "e259"
  },
  {
    "name": "vertical_align_top",
    "id": "e25a"
  },
  {
    "name": "vibration",
    "id": "e62d"
  },
  {
    "name": "video_call",
    "id": "e070"
  },
  {
    "name": "video_label",
    "id": "e071"
  },
  {
    "name": "video_library",
    "id": "e04a"
  },
  {
    "name": "videocam",
    "id": "e04b"
  },
  {
    "name": "videocam_off",
    "id": "e04c"
  },
  {
    "name": "videogame_asset",
    "id": "e338"
  },
  {
    "name": "view_agenda",
    "id": "e8e9"
  },
  {
    "name": "view_array",
    "id": "e8ea"
  },
  {
    "name": "view_carousel",
    "id": "e8eb"
  },
  {
    "name": "view_column",
    "id": "e8ec"
  },
  {
    "name": "view_comfy",
    "id": "e42a"
  },
  {
    "name": "view_compact",
    "id": "e42b"
  },
  {
    "name": "view_day",
    "id": "e8ed"
  },
  {
    "name": "view_headline",
    "id": "e8ee"
  },
  {
    "name": "view_list",
    "id": "e8ef"
  },
  {
    "name": "view_module",
    "id": "e8f0"
  },
  {
    "name": "view_quilt",
    "id": "e8f1"
  },
  {
    "name": "view_stream",
    "id": "e8f2"
  },
  {
    "name": "view_week",
    "id": "e8f3"
  },
  {
    "name": "vignette",
    "id": "e435"
  },
  {
    "name": "visibility",
    "id": "e8f4"
  },
  {
    "name": "visibility_off",
    "id": "e8f5"
  },
  {
    "name": "voice_chat",
    "id": "e62e"
  },
  {
    "name": "voicemail",
    "id": "e0d9"
  },
  {
    "name": "volume_down",
    "id": "e04d"
  },
  {
    "name": "volume_mute",
    "id": "e04e"
  },
  {
    "name": "volume_off",
    "id": "e04f"
  },
  {
    "name": "volume_up",
    "id": "e050"
  },
  {
    "name": "vpn_key",
    "id": "e0da"
  },
  {
    "name": "vpn_lock",
    "id": "e62f"
  },
  {
    "name": "wallpaper",
    "id": "e1bc"
  },
  {
    "name": "warning",
    "id": "e002"
  },
  {
    "name": "watch",
    "id": "e334"
  },
  {
    "name": "watch_later",
    "id": "e924"
  },
  {
    "name": "wb_auto",
    "id": "e42c"
  },
  {
    "name": "wb_cloudy",
    "id": "e42d"
  },
  {
    "name": "wb_incandescent",
    "id": "e42e"
  },
  {
    "name": "wb_iridescent",
    "id": "e436"
  },
  {
    "name": "wb_sunny",
    "id": "e430"
  },
  {
    "name": "wc",
    "id": "e63d"
  },
  {
    "name": "web",
    "id": "e051"
  },
  {
    "name": "web_asset",
    "id": "e069"
  },
  {
    "name": "weekend",
    "id": "e16b"
  },
  {
    "name": "whatshot",
    "id": "e80e"
  },
  {
    "name": "widgets",
    "id": "e1bd"
  },
  {
    "name": "wifi",
    "id": "e63e"
  },
  {
    "name": "wifi_lock",
    "id": "e1e1"
  },
  {
    "name": "wifi_tethering",
    "id": "e1e2"
  },
  {
    "name": "work",
    "id": "e8f9"
  },
  {
    "name": "wrap_text",
    "id": "e25b"
  },
  {
    "name": "youtube_searched_for",
    "id": "e8fa"
  },
  {
    "name": "zoom_in",
    "id": "e8ff"
  },
  {
    "name": "zoom_out",
    "id": "e900"
  },
  {
    "name": "zoom_out_map",
    "id": "e56b"
  }
]